…
### A basic figure

Now that we’ve gained some skills at manipulating data, let’s put it to
use by making things. Which teams were the most pass-heavy in the first
half on early downs with win probability between 20 and 80, excluding
the final 2 minutes of the half when everyone is pass-happy?

``` r
schotty <- pbp_rp %>%
    filter(wp > .20 & wp < .80 & down <= 2 & qtr <= 2 & half_seconds_remaining > 120) %>%
    group_by(posteam) %>%
    summarize(mean_pass = mean(pass), plays = n()) %>%
    arrange(-mean_pass)
schotty
#> # A tibble: 32 x 3
#>    posteam mean_pass plays
#>    <chr>       <dbl> <int>
#>  1 KC          0.686   376
#>  2 MIA         0.597   288
#>  3 LA          0.587   329
#>  4 NO          0.584   322
#>  5 CHI         0.569   306
#>  6 GB          0.556   284
#>  7 CLE         0.554   278
#>  8 TB          0.552   317
#>  9 CAR         0.548   272
#> 10 ARI         0.547   318
#> # ... with 22 more rows
```
…
The top pass defenses (2002 TB, 2017 JAX, 2019 NE) and offenses (2007
Pats, 2004 Colts, 2011 Packers) definitely check out\!

### Fix team names and join

Now we’re ready to bind it all together. Actually, let’s make sure all
the team names are ready too.

``` r
team_wins %>%
  group_by(team) %>%
  summarize(n=n()) %>%
  arrange(n)
#> # A tibble: 35 x 2
#>    team      n
#>    <chr> <int>
#>  1 LV        1
#>  2 LAC       4
#>  3 LA        5
#>  4 STL      17
#>  5 SD       18
#>  6 HOU      19
#>  7 OAK      21
#>  8 ARI      22
#>  9 ATL      22
#> 10 BAL      22
#> # ... with 25 more rows
```
…
The `TRUE` statement at the bottom says that if none of the above cases
are found, keep team the same. Let’s make sure this worked:

``` r
team_wins %>%
  group_by(team) %>%
  summarize(n=n()) %>%
  arrange(n)
#> # A tibble: 32 x 2
#>    team      n
#>    <chr> <int>
#>  1 HOU      19
#>  2 ARI      22
#>  3 ATL      22
#>  4 BAL      22
#>  5 BUF      22
#>  6 CAR      22
#>  7 CHI      22
#>  8 CIN      22
#>  9 CLE      22
#> 10 DAL      22
#> # ... with 22 more rows
```
…
