…
    ## -- Conflicts ----------------------------------------------------------------- tidyverse_conflicts() --
    ## x dplyr::filter() masks stats::filter()
    ## x dplyr::lag()    masks stats::lag()

The easy part is getting the rosters. There’s a new function called
`fast_scraper_roster`.

``` r
roster <- fast_scraper_roster(2019)

roster %>%
  filter(team == "SEA", position %in% c("WR", "TE"))
```

    ## # A tibble: 23 x 21
    ##    season team  position depth_chart_pos~ jersey_number status full_name
    ##     <dbl> <chr> <chr>    <chr>                    <int> <chr>  <chr>    
    ##  1   2019 SEA   TE       <NA>                        NA DEV    Wes Saxt~
    ##  2   2019 SEA   TE       <NA>                        48 ACT    Jacob Ho~
    ##  3   2019 SEA   TE       <NA>                        47 CUT    Jackson ~
    ##  4   2019 SEA   TE       <NA>                        82 ACT    Luke Wil~
    ##  5   2019 SEA   TE       <NA>                        88 RES    Will Dis~
    ##  6   2019 SEA   TE       <NA>                        86 RES    Justin J~
    ##  7   2019 SEA   TE       <NA>                        84 RES    Ed Dicks~
    ##  8   2019 SEA   TE       <NA>                        46 ACT    Tyrone S~
    ##  9   2019 SEA   WR       <NA>                        10 SUS    Josh Gor~
    ## 10   2019 SEA   WR       <NA>                        83 ACT    David Mo~
    ## # ... with 13 more rows, and 14 more variables: first_name <chr>,
    ## #   last_name <chr>, birth_date <chr>, height <chr>, weight <chr>,
    ## #   college <chr>, high_school <chr>, gsis_id <chr>, espn_id <int>,
    ## #   sportradar_id <chr>, yahoo_id <int>, rotowire_id <int>, update_dt <dttm>,
    ## #   headshot_url <chr>
Now let’s load play-by-play data from 2019:

``` r
games_2019 <- readRDS(url('https://raw.githubusercontent.com/guga31bb/nflfastR-data/master/data/play_by_play_2019.rds'))
```

Here is what the new player IDs look like:

``` r
games_2019 %>%
  filter(rush == 1 | pass == 1, posteam == "SEA") %>%
  select(desc, name, id)
```

    ## # A tibble: 1,204 x 3
    ##    desc                                           name    id                    
    ##    <chr>                                          <chr>   <chr>                 
    ##  1 (11:51) (Shotgun) 32-C.Carson left tackle to ~ C.Cars~ 32013030-2d30-3033-33~
    ##  2 (11:24) 3-R.Wilson pass incomplete deep left ~ R.Wils~ 32013030-2d30-3032-39~
    ##  3 (11:19) (Shotgun) 3-R.Wilson pass short left ~ R.Wils~ 32013030-2d30-3032-39~
    ##  4 (2:48) (Shotgun) 74-G.Fant reported in as eli~ C.Cars~ 32013030-2d30-3033-33~
    ##  5 (2:16) 74-G.Fant reported in as eligible.  3-~ R.Wils~ 32013030-2d30-3032-39~
    ##  6 (1:34) (Shotgun) 32-C.Carson left tackle to S~ C.Cars~ 32013030-2d30-3033-33~
    ##  7 (:40) (Shotgun) 3-R.Wilson pass short left to~ R.Wils~ 32013030-2d30-3032-39~
    ##  8 (:10) (Shotgun) 32-C.Carson left guard to CIN~ C.Cars~ 32013030-2d30-3033-33~
    ##  9 (15:00) 3-R.Wilson sacked at CIN 41 for -9 ya~ R.Wils~ 32013030-2d30-3032-39~
    ## 10 (14:15) (Shotgun) 3-R.Wilson pass short middl~ R.Wils~ 32013030-2d30-3032-39~
    ## # ... with 1,194 more rows
But these IDs aren’t very useful. So we need to decode them using the
new function `decode_player_ids`:

``` r
games_2019 %>%
  filter(rush == 1 | pass == 1, posteam == "SEA") %>%
  nflfastR::decode_player_ids() %>%
  select(desc, name, id)
```

    ## Start decoding, please wait...

    ## Decoding completed.

    ## # A tibble: 1,204 x 3
    ##    desc                                                        name     id      
    ##    <chr>                                                       <chr>    <chr>   
    ##  1 (11:51) (Shotgun) 32-C.Carson left tackle to SEA 21 for 1 ~ C.Carson 00-0033~
    ##  2 (11:24) 3-R.Wilson pass incomplete deep left [97-G.Atkins]~ R.Wilson 00-0029~
    ##  3 (11:19) (Shotgun) 3-R.Wilson pass short left to 14-DK.Metc~ R.Wilson 00-0029~
    ##  4 (2:48) (Shotgun) 74-G.Fant reported in as eligible.  32-C.~ C.Carson 00-0033~
    ##  5 (2:16) 74-G.Fant reported in as eligible.  3-R.Wilson sack~ R.Wilson 00-0029~
    ##  6 (1:34) (Shotgun) 32-C.Carson left tackle to SEA 23 for 5 y~ C.Carson 00-0033~
    ##  7 (:40) (Shotgun) 3-R.Wilson pass short left to 32-C.Carson ~ R.Wilson 00-0029~
    ##  8 (:10) (Shotgun) 32-C.Carson left guard to CIN 32 for 3 yar~ C.Carson 00-0033~
    ##  9 (15:00) 3-R.Wilson sacked at CIN 41 for -9 yards (94-S.Hub~ R.Wilson 00-0029~
    ## 10 (14:15) (Shotgun) 3-R.Wilson pass short middle to 32-C.Car~ R.Wilson 00-0029~
    ## # ... with 1,194 more rows
…
